<svg id="message-search_linear" data-name="message-search/linear" xmlns="http://www.w3.org/2000/svg" width="30" height="30" viewBox="0 0 30 30">
  <g id="vuesax_linear_message-search" data-name="vuesax/linear/message-search">
    <g id="message-search">
      <g id="Group" transform="translate(2.5 2.462)">
        <path id="Vector" d="M14,24.25a1.776,1.776,0,0,1-3,0l-1.875-2.5a1.437,1.437,0,0,0-1-.5H7.5c-5,0-7.5-1.25-7.5-7.5V7.5Q0,0,7.5,0h10Q25,0,25,7.5v6.25" fill="none" stroke="#0061b2" stroke-linecap="round" stroke-linejoin="round" stroke-width="2"/>
      </g>
      <g id="Group-2" data-name="Group" transform="translate(18.75 18.75)">
        <path id="Vector-2" data-name="Vector" d="M8,4A4,4,0,1,1,4,0,4,4,0,0,1,8,4Z" fill="none" stroke="#0061b2" stroke-linecap="round" stroke-linejoin="round" stroke-width="2"/>
        <path id="Vector-3" data-name="Vector" d="M1.25,1.25,0,0" transform="translate(7.5 7.5)" fill="none" stroke="#0061b2" stroke-linecap="round" stroke-linejoin="round" stroke-width="2"/>
      </g>
      <path id="Vector-4" data-name="Vector" d="M0,0H30V30H0Z" fill="none" opacity="0"/>
      <path id="Vector-5" data-name="Vector" d="M.495.5H.506" transform="translate(19.501 13.25)" fill="none" stroke="#0061b2" stroke-linecap="round" stroke-linejoin="round" stroke-width="2"/>
      <path id="Vector-6" data-name="Vector" d="M.495.5H.506" transform="translate(14.5 13.25)" fill="none" stroke="#0061b2" stroke-linecap="round" stroke-linejoin="round" stroke-width="2"/>
      <path id="Vector-7" data-name="Vector" d="M.495.5H.506" transform="translate(9.499 13.25)" fill="none" stroke="#0061b2" stroke-linecap="round" stroke-linejoin="round" stroke-width="2"/>
    </g>
  </g>
</svg>
